<?xml version="1.0" encoding="UTF-8" standalone="no"?>
<!DOCTYPE svg PUBLIC "-//W3C//DTD SVG 1.1//EN"
 "http://www.w3.org/Graphics/SVG/1.1/DTD/svg11.dtd">
<!-- Generated by graphviz version 2.36.0 (20140111.2315)
 -->
<!-- Title: models_diagram Pages: 1 -->
<svg width="1483pt" height="470pt"
 viewBox="0.00 0.00 1483.00 470.00" xmlns="http://www.w3.org/2000/svg" xmlns:xlink="http://www.w3.org/1999/xlink">
<g id="graph0" class="graph" transform="scale(1 1) rotate(0) translate(4 466)">
<title>models_diagram</title>
<polygon fill="none" stroke="none" points="-4,4 -4,-466 1479,-466 1479,4 -4,4"/>
<!-- _diagram_info -->
<g id="node1" class="node"><title>_diagram_info</title>
<text text-anchor="start" x="7" y="-447.6" font-family="Times,serif" font-size="13.00">Models diagram</text>
<text text-anchor="start" x="7" y="-433.6" font-family="Times,serif" font-size="13.00">Date: Feb 19 2018 &#45; 19:06</text>
<text text-anchor="start" x="7" y="-419.6" font-family="Times,serif" font-size="13.00">Migration version: 20180202153402</text>
<text text-anchor="start" x="7" y="-405.6" font-family="Times,serif" font-size="13.00">Generated by RailRoady 1.5.3</text>
<text text-anchor="start" x="7" y="-391.6" font-family="Times,serif" font-size="13.00">http://railroady.prestonlee.com</text>
</g>
<!-- Goal -->
<g id="node2" class="node"><title>Goal</title>
<ellipse fill="none" stroke="black" cx="439" cy="-92" rx="27.4223" ry="18"/>
<text text-anchor="middle" x="439" y="-88.3" font-family="Times,serif" font-size="14.00">Goal</text>
</g>
<!-- GoalDetail -->
<g id="node4" class="node"><title>GoalDetail</title>
<ellipse fill="none" stroke="black" cx="374" cy="-18" rx="49.0941" ry="18"/>
<text text-anchor="middle" x="374" y="-14.3" font-family="Times,serif" font-size="14.00">GoalDetail</text>
</g>
<!-- Goal&#45;&gt;GoalDetail -->
<g id="edge1" class="edge"><title>Goal&#45;&gt;GoalDetail</title>
<path fill="none" stroke="#927b75" d="M419.953,-69.9021C412.346,-61.4756 403.545,-51.7263 395.693,-43.029"/>
<ellipse fill="none" stroke="#927b75" cx="422.852" cy="-73.1125" rx="4.00002" ry="4.00002"/>
<polygon fill="#927b75" stroke="#927b75" points="395.512,-42.8282 392.151,-32.39 392.161,-39.1168 388.81,-35.4055 388.81,-35.4055 388.81,-35.4055 392.161,-39.1168 385.47,-38.4209 395.512,-42.8282 395.512,-42.8282"/>
</g>
<!-- GoalKpiGroup -->
<g id="node7" class="node"><title>GoalKpiGroup</title>
<ellipse fill="none" stroke="black" cx="505" cy="-18" rx="63.5411" ry="18"/>
<text text-anchor="middle" x="505" y="-14.3" font-family="Times,serif" font-size="14.00">GoalKpiGroup</text>
</g>
<!-- Goal&#45;&gt;GoalKpiGroup -->
<g id="edge2" class="edge"><title>Goal&#45;&gt;GoalKpiGroup</title>
<path fill="none" stroke="#924cde" d="M458.298,-69.9471C466.434,-61.0717 475.921,-50.7226 484.211,-41.6791"/>
<ellipse fill="none" stroke="#924cde" cx="455.378" cy="-73.1329" rx="4.00002" ry="4.00002"/>
<ellipse fill="#924cde" stroke="#924cde" cx="487.025" cy="-38.6096" rx="4.00002" ry="4.00002"/>
</g>
<!-- Enrollment -->
<g id="node3" class="node"><title>Enrollment</title>
<ellipse fill="none" stroke="black" cx="462" cy="-166" rx="50.5427" ry="18"/>
<text text-anchor="middle" x="462" y="-162.3" font-family="Times,serif" font-size="14.00">Enrollment</text>
</g>
<!-- Enrollment&#45;&gt;Goal -->
<g id="edge3" class="edge"><title>Enrollment&#45;&gt;Goal</title>
<path fill="none" stroke="#e17217" d="M454.098,-140.262C452.002,-133.701 449.728,-126.584 447.597,-119.913"/>
<ellipse fill="none" stroke="#e17217" cx="455.332" cy="-144.127" rx="4.00001" ry="4.00001"/>
<polygon fill="#e17217" stroke="#e17217" points="447.455,-119.466 448.698,-108.571 445.933,-114.703 444.412,-109.941 444.412,-109.941 444.412,-109.941 445.933,-114.703 440.125,-111.31 447.455,-119.466 447.455,-119.466"/>
</g>
<!-- ResourceStatus -->
<g id="node22" class="node"><title>ResourceStatus</title>
<ellipse fill="none" stroke="black" cx="550" cy="-92" rx="64.4914" ry="18"/>
<text text-anchor="middle" x="550" y="-88.3" font-family="Times,serif" font-size="14.00">ResourceStatus</text>
</g>
<!-- Enrollment&#45;&gt;ResourceStatus -->
<g id="edge4" class="edge"><title>Enrollment&#45;&gt;ResourceStatus</title>
<path fill="none" stroke="#1189b6" d="M487.919,-143.794C498.695,-134.977 511.223,-124.726 522.192,-115.752"/>
<ellipse fill="none" stroke="#1189b6" cx="484.626" cy="-146.488" rx="4.00002" ry="4.00002"/>
<polygon fill="#1189b6" stroke="#1189b6" points="522.481,-115.516 533.07,-112.666 526.35,-112.35 530.22,-109.183 530.22,-109.183 530.22,-109.183 526.35,-112.35 527.371,-105.701 522.481,-115.516 522.481,-115.516"/>
</g>
<!-- StudentDatum -->
<g id="node5" class="node"><title>StudentDatum</title>
<ellipse fill="none" stroke="black" cx="542" cy="-423" rx="61.6163" ry="18"/>
<text text-anchor="middle" x="542" y="-419.3" font-family="Times,serif" font-size="14.00">StudentDatum</text>
</g>
<!-- Ahoy::Event -->
<g id="node6" class="node"><title>Ahoy::Event</title>
<ellipse fill="none" stroke="black" cx="334" cy="-166" rx="55.3436" ry="18"/>
<text text-anchor="middle" x="334" y="-162.3" font-family="Times,serif" font-size="14.00">Ahoy::Event</text>
</g>
<!-- SessionResource -->
<g id="node8" class="node"><title>SessionResource</title>
<ellipse fill="none" stroke="black" cx="703" cy="-92" rx="70.2909" ry="18"/>
<text text-anchor="middle" x="703" y="-88.3" font-family="Times,serif" font-size="14.00">SessionResource</text>
</g>
<!-- Visit -->
<g id="node9" class="node"><title>Visit</title>
<ellipse fill="none" stroke="black" cx="361" cy="-254" rx="27.4223" ry="18"/>
<text text-anchor="middle" x="361" y="-250.3" font-family="Times,serif" font-size="14.00">Visit</text>
</g>
<!-- Visit&#45;&gt;Ahoy::Event -->
<g id="edge5" class="edge"><title>Visit&#45;&gt;Ahoy::Event</title>
<path fill="none" stroke="#77e2c0" d="M341.878,-231.465C339.076,-227.252 336.599,-222.681 335,-218 332.48,-210.625 331.575,-202.295 331.471,-194.536"/>
<ellipse fill="none" stroke="#77e2c0" cx="344.436" cy="-234.949" rx="4.00002" ry="4.00002"/>
<polygon fill="#77e2c0" stroke="#77e2c0" points="331.473,-194.451 336.249,-184.58 331.612,-189.453 331.751,-184.455 331.751,-184.455 331.751,-184.455 331.612,-189.453 327.253,-184.33 331.473,-194.451 331.473,-194.451"/>
<text text-anchor="middle" x="369" y="-206.3" font-family="Times,serif" font-size="14.00">ahoy_events</text>
</g>
<!-- ResourceActivityDatum -->
<g id="node10" class="node"><title>ResourceActivityDatum</title>
<ellipse fill="none" stroke="black" cx="719" cy="-423" rx="96.2631" ry="18"/>
<text text-anchor="middle" x="719" y="-419.3" font-family="Times,serif" font-size="14.00">ResourceActivityDatum</text>
</g>
<!-- Edition -->
<g id="node11" class="node"><title>Edition</title>
<ellipse fill="none" stroke="black" cx="593" cy="-254" rx="36.096" ry="18"/>
<text text-anchor="middle" x="593" y="-250.3" font-family="Times,serif" font-size="14.00">Edition</text>
</g>
<!-- Edition&#45;&gt;Enrollment -->
<g id="edge6" class="edge"><title>Edition&#45;&gt;Enrollment</title>
<path fill="none" stroke="#d25ab5" d="M565.223,-234.764C544.313,-221.038 515.623,-202.203 493.796,-187.874"/>
<ellipse fill="none" stroke="#d25ab5" cx="568.609" cy="-236.987" rx="4.00002" ry="4.00002"/>
<polygon fill="#d25ab5" stroke="#d25ab5" points="493.563,-187.721 487.673,-178.471 489.383,-184.977 485.203,-182.233 485.203,-182.233 485.203,-182.233 489.383,-184.977 482.734,-185.995 493.563,-187.721 493.563,-187.721"/>
</g>
<!-- ApplicationRecord -->
<g id="node12" class="node"><title>ApplicationRecord</title>
<ellipse fill="none" stroke="black" cx="911" cy="-423" rx="77.0154" ry="18"/>
<text text-anchor="middle" x="911" y="-419.3" font-family="Times,serif" font-size="14.00">ApplicationRecord</text>
</g>
<!-- SessionDatum -->
<g id="node13" class="node"><title>SessionDatum</title>
<ellipse fill="none" stroke="black" cx="1068" cy="-423" rx="61.6163" ry="18"/>
<text text-anchor="middle" x="1068" y="-419.3" font-family="Times,serif" font-size="14.00">SessionDatum</text>
</g>
<!-- Note -->
<g id="node14" class="node"><title>Note</title>
<ellipse fill="none" stroke="black" cx="511" cy="-254" rx="27.4223" ry="18"/>
<text text-anchor="middle" x="511" y="-250.3" font-family="Times,serif" font-size="14.00">Note</text>
</g>
<!-- AppConfiguration -->
<g id="node15" class="node"><title>AppConfiguration</title>
<ellipse fill="none" stroke="black" cx="1223" cy="-423" rx="75.0904" ry="18"/>
<text text-anchor="middle" x="1223" y="-419.3" font-family="Times,serif" font-size="14.00">AppConfiguration</text>
</g>
<!-- Course -->
<g id="node16" class="node"><title>Course</title>
<ellipse fill="none" stroke="black" cx="551" cy="-328" rx="35.6194" ry="18"/>
<text text-anchor="middle" x="551" y="-324.3" font-family="Times,serif" font-size="14.00">Course</text>
</g>
<!-- Course&#45;&gt;Edition -->
<g id="edge8" class="edge"><title>Course&#45;&gt;Edition</title>
<path fill="none" stroke="#8e5bbf" d="M564.73,-303.462C568.975,-296.186 573.671,-288.136 577.997,-280.72"/>
<ellipse fill="none" stroke="#8e5bbf" cx="562.546" cy="-307.207" rx="4.00002" ry="4.00002"/>
<polygon fill="#8e5bbf" stroke="#8e5bbf" points="578.177,-280.411 587.103,-274.04 580.696,-276.092 583.216,-271.773 583.216,-271.773 583.216,-271.773 580.696,-276.092 579.329,-269.505 578.177,-280.411 578.177,-280.411"/>
</g>
<!-- Course&#45;&gt;Note -->
<g id="edge9" class="edge"><title>Course&#45;&gt;Note</title>
<path fill="none" stroke="#ed8146" d="M537.835,-303.303C533.666,-295.8 529.048,-287.486 524.834,-279.901"/>
<ellipse fill="none" stroke="#ed8146" cx="539.78" cy="-306.804" rx="4.00002" ry="4.00002"/>
<polygon fill="#ed8146" stroke="#ed8146" points="524.808,-279.855 523.886,-268.928 522.38,-275.484 519.952,-271.113 519.952,-271.113 519.952,-271.113 522.38,-275.484 516.018,-273.299 524.808,-279.855 524.808,-279.855"/>
</g>
<!-- Resource -->
<g id="node17" class="node"><title>Resource</title>
<ellipse fill="none" stroke="black" cx="691" cy="-254" rx="43.319" ry="18"/>
<text text-anchor="middle" x="691" y="-250.3" font-family="Times,serif" font-size="14.00">Resource</text>
</g>
<!-- Course&#45;&gt;Resource -->
<g id="edge7" class="edge"><title>Course&#45;&gt;Resource</title>
<path fill="none" stroke="#9a9870" d="M582.45,-310.826C604.279,-299.6 633.375,-284.636 655.949,-273.026"/>
<ellipse fill="none" stroke="#9a9870" cx="578.624" cy="-312.793" rx="4.00002" ry="4.00002"/>
<polygon fill="#9a9870" stroke="#9a9870" points="655.979,-273.011 666.93,-272.439 660.426,-270.724 664.872,-268.437 664.872,-268.437 664.872,-268.437 660.426,-270.724 662.814,-264.435 655.979,-273.011 655.979,-273.011"/>
</g>
<!-- Resource&#45;&gt;SessionResource -->
<g id="edge10" class="edge"><title>Resource&#45;&gt;SessionResource</title>
<path fill="none" stroke="#cd001c" d="M692.901,-227.658C695.099,-198.346 698.704,-150.276 700.96,-120.199"/>
<ellipse fill="none" stroke="#cd001c" cx="692.583" cy="-231.888" rx="4" ry="4"/>
<polygon fill="#cd001c" stroke="#cd001c" points="700.977,-119.972 706.212,-110.336 701.351,-114.986 701.725,-110 701.725,-110 701.725,-110 701.351,-114.986 697.238,-109.663 700.977,-119.972 700.977,-119.972"/>
</g>
<!-- Session -->
<g id="node19" class="node"><title>Session</title>
<ellipse fill="none" stroke="black" cx="599" cy="-166" rx="37.5442" ry="18"/>
<text text-anchor="middle" x="599" y="-162.3" font-family="Times,serif" font-size="14.00">Session</text>
</g>
<!-- Resource&#45;&gt;Session -->
<g id="edge11" class="edge"><title>Resource&#45;&gt;Session</title>
<path fill="none" stroke="#00ef08" d="M665.121,-230.737C660.381,-226.552 655.51,-222.178 651,-218 641.289,-209.003 630.825,-198.836 621.847,-189.96"/>
<polygon fill="#00ef08" stroke="#00ef08" points="665.361,-230.948 669.922,-240.92 669.124,-234.241 672.886,-237.534 672.886,-237.534 672.886,-237.534 669.124,-234.241 675.85,-234.148 665.361,-230.948 665.361,-230.948"/>
<polygon fill="#00ef08" stroke="#00ef08" points="621.798,-189.911 617.876,-179.67 618.251,-186.387 614.704,-182.862 614.704,-182.862 614.704,-182.862 618.251,-186.387 611.532,-186.054 621.798,-189.911 621.798,-189.911"/>
</g>
<!-- Resource&#45;&gt;ResourceStatus -->
<g id="edge12" class="edge"><title>Resource&#45;&gt;ResourceStatus</title>
<path fill="none" stroke="#0e423f" d="M684.88,-227.985C678.224,-205.013 665.673,-171.126 645,-148 631.39,-132.775 612.529,-120.659 595.197,-111.717"/>
<ellipse fill="none" stroke="#0e423f" cx="686.005" cy="-232.059" rx="4.00001" ry="4.00001"/>
<polygon fill="#0e423f" stroke="#0e423f" points="594.741,-111.493 587.756,-103.039 590.255,-109.285 585.769,-107.077 585.769,-107.077 585.769,-107.077 590.255,-109.285 583.782,-111.114 594.741,-111.493 594.741,-111.493"/>
</g>
<!-- ActivityDetailView -->
<g id="node18" class="node"><title>ActivityDetailView</title>
<ellipse fill="none" stroke="black" cx="1396" cy="-423" rx="79.4147" ry="18"/>
<text text-anchor="middle" x="1396" y="-419.3" font-family="Times,serif" font-size="14.00">ActivityDetailView</text>
</g>
<!-- Session&#45;&gt;SessionResource -->
<g id="edge13" class="edge"><title>Session&#45;&gt;SessionResource</title>
<path fill="none" stroke="#17ed5e" d="M626.35,-146.066C640.061,-136.573 656.747,-125.021 671.045,-115.123"/>
<ellipse fill="none" stroke="#17ed5e" cx="622.836" cy="-148.498" rx="4.00002" ry="4.00002"/>
<polygon fill="#17ed5e" stroke="#17ed5e" points="671.37,-114.898 682.153,-112.906 675.481,-112.052 679.592,-109.206 679.592,-109.206 679.592,-109.206 675.481,-112.052 677.03,-105.506 671.37,-114.898 671.37,-114.898"/>
</g>
<!-- User -->
<g id="node20" class="node"><title>User</title>
<ellipse fill="none" stroke="black" cx="417" cy="-328" rx="26.949" ry="18"/>
<text text-anchor="middle" x="417" y="-324.3" font-family="Times,serif" font-size="14.00">User</text>
</g>
<!-- User&#45;&gt;Enrollment -->
<g id="edge17" class="edge"><title>User&#45;&gt;Enrollment</title>
<path fill="none" stroke="#0a090c" d="M419.225,-301.778C422.095,-276.014 428.313,-235.196 441,-202 442.189,-198.889 443.649,-195.74 445.241,-192.673"/>
<ellipse fill="none" stroke="#0a090c" cx="418.791" cy="-305.927" rx="4" ry="4"/>
<polygon fill="#0a090c" stroke="#0a090c" points="445.325,-192.525 454.183,-186.059 447.799,-188.179 450.272,-183.834 450.272,-183.834 450.272,-183.834 447.799,-188.179 446.361,-181.608 445.325,-192.525 445.325,-192.525"/>
</g>
<!-- User&#45;&gt;Visit -->
<g id="edge18" class="edge"><title>User&#45;&gt;Visit</title>
<path fill="none" stroke="#de229c" d="M400.176,-305.369C393.503,-296.789 385.816,-286.906 379.029,-278.18"/>
<ellipse fill="none" stroke="#de229c" cx="402.668" cy="-308.573" rx="4.00002" ry="4.00002"/>
<polygon fill="#de229c" stroke="#de229c" points="378.998,-278.141 376.411,-267.485 375.929,-274.194 372.859,-270.247 372.859,-270.247 372.859,-270.247 375.929,-274.194 369.307,-273.01 378.998,-278.141 378.998,-278.141"/>
</g>
<!-- User&#45;&gt;Note -->
<g id="edge15" class="edge"><title>User&#45;&gt;Note</title>
<path fill="none" stroke="#517f17" d="M443.038,-310.433C451.484,-304.807 460.789,-298.337 469,-292 475.347,-287.102 481.964,-281.518 488.02,-276.199"/>
<ellipse fill="none" stroke="#517f17" cx="439.53" cy="-312.74" rx="4.00002" ry="4.00002"/>
<polygon fill="#517f17" stroke="#517f17" points="488.394,-275.864 498.849,-272.555 492.122,-272.532 495.85,-269.2 495.85,-269.2 495.85,-269.2 492.122,-272.532 492.851,-265.845 488.394,-275.864 488.394,-275.864"/>
</g>
<!-- User&#45;&gt;Session -->
<g id="edge14" class="edge"><title>User&#45;&gt;Session</title>
<path fill="none" stroke="#706e10" d="M429.873,-303.583C443.016,-280.238 463.003,-246.406 474,-236 499.336,-212.025 534.588,-193.559 561.198,-181.79"/>
<ellipse fill="none" stroke="#706e10" cx="427.818" cy="-307.259" rx="4.00002" ry="4.00002"/>
<polygon fill="#706e10" stroke="#706e10" points="561.39,-181.707 572.354,-181.893 565.983,-179.733 570.577,-177.759 570.577,-177.759 570.577,-177.759 565.983,-179.733 568.8,-173.624 561.39,-181.707 561.39,-181.707"/>
</g>
<!-- Membership -->
<g id="node21" class="node"><title>Membership</title>
<ellipse fill="none" stroke="black" cx="259" cy="-254" rx="55.3436" ry="18"/>
<text text-anchor="middle" x="259" y="-250.3" font-family="Times,serif" font-size="14.00">Membership</text>
</g>
<!-- User&#45;&gt;Membership -->
<g id="edge16" class="edge"><title>User&#45;&gt;Membership</title>
<path fill="none" stroke="#3400a7" d="M387.559,-313.584C362.627,-302.223 326.65,-285.828 299.092,-273.27"/>
<ellipse fill="none" stroke="#3400a7" cx="391.391" cy="-315.33" rx="4.00002" ry="4.00002"/>
<polygon fill="#3400a7" stroke="#3400a7" points="298.827,-273.149 291.594,-264.908 294.277,-271.076 289.728,-269.002 289.728,-269.002 289.728,-269.002 294.277,-271.076 287.862,-273.097 298.827,-273.149 298.827,-273.149"/>
</g>
<!-- LearningManagementSystem -->
<g id="node23" class="node"><title>LearningManagementSystem</title>
<ellipse fill="none" stroke="black" cx="347" cy="-423" rx="115.534" ry="18"/>
<text text-anchor="middle" x="347" y="-419.3" font-family="Times,serif" font-size="14.00">LearningManagementSystem</text>
</g>
<!-- LearningManagementSystem&#45;&gt;Course -->
<g id="edge20" class="edge"><title>LearningManagementSystem&#45;&gt;Course</title>
<path fill="none" stroke="#d51037" d="M389.966,-402.412C427.512,-385.296 481.331,-360.761 516.226,-344.853"/>
<ellipse fill="none" stroke="#d51037" cx="386.174" cy="-404.141" rx="4.00002" ry="4.00002"/>
<polygon fill="#d51037" stroke="#d51037" points="516.438,-344.756 527.404,-344.703 520.988,-342.682 525.537,-340.608 525.537,-340.608 525.537,-340.608 520.988,-342.682 523.67,-336.513 516.438,-344.756 516.438,-344.756"/>
</g>
<!-- LearningManagementSystem&#45;&gt;Membership -->
<g id="edge19" class="edge"><title>LearningManagementSystem&#45;&gt;Membership</title>
<path fill="none" stroke="#4064b4" d="M334.066,-397.454C317.66,-366.32 289.49,-312.862 272.719,-281.035"/>
<ellipse fill="none" stroke="#4064b4" cx="336.049" cy="-401.218" rx="4.00002" ry="4.00002"/>
<polygon fill="#4064b4" stroke="#4064b4" points="272.567,-280.747 271.887,-269.803 270.237,-276.324 267.906,-271.9 267.906,-271.9 267.906,-271.9 270.237,-276.324 263.925,-273.998 272.567,-280.747 272.567,-280.747"/>
</g>
</g>
</svg>
