id_resource_lms,course_id_lms,secuencia,type,section,module,name,duration,required
a42CD,9uthHBq9EeWg_RJGAuFGjw,1,lecture,4,0,Acondicionamiento de señales: amplificación y filtrado,7,f
HlIvf,9uthHBq9EeWg_RJGAuFGjw,0,lecture,3,0,Representación digital de señales e información,20,f
c4BNK,9uthHBq9EeWg_RJGAuFGjw,1,supplement,0,0,Cuestionario Inicial,10,f
uTSaQ,9uthHBq9EeWg_RJGAuFGjw,0,lecture,1,0,Motivación,3,f
5II2x,9uthHBq9EeWg_RJGAuFGjw,3,lecture,1,0,Introducción a las señales eléctricas,10,f
NUDn9,9uthHBq9EeWg_RJGAuFGjw,2,exam,3,0,Lección 3 - Módulo 1,14,f
HGB2q,9uthHBq9EeWg_RJGAuFGjw,0,lecture,4,0,Conversión A/D y D/A,11,f
lIyXY,9uthHBq9EeWg_RJGAuFGjw,4,exam,1,0,Acerca de la electricidad,8,f
C7XUR,9uthHBq9EeWg_RJGAuFGjw,2,lecture,1,0,¿Qué es la electricidad?,11,f
cJL2V,9uthHBq9EeWg_RJGAuFGjw,2,exam,4,0,Lección 4 - Módulo 1,6,f
LFsmT,9uthHBq9EeWg_RJGAuFGjw,1,lecture,1,0,Del mundo físico al eléctrico,6,f
IrNcu,9uthHBq9EeWg_RJGAuFGjw,1,lecture,3,0,Fundamentos de la lógica y el procesamiento digital,8,f
B0LmY,9uthHBq9EeWg_RJGAuFGjw,0,lecture,2,0,Energía y potencia,16,f
Gxh1f,9uthHBq9EeWg_RJGAuFGjw,2,lecture,2,0,Medición de señales: multímetro y osciloscopio,12,f
VX8ON,9uthHBq9EeWg_RJGAuFGjw,0,lecture,0,0,Video de Bienvenida,2,f
fiyqm,9uthHBq9EeWg_RJGAuFGjw,3,exam,2,0,Lección 2 - Módulo 1,14,f
b3oKc,9uthHBq9EeWg_RJGAuFGjw,2,supplement,0,0,Lista de materiales,10,f
ERfzz,9uthHBq9EeWg_RJGAuFGjw,1,lecture,2,0,Alimentación y señales de un circuito,15,f
1gJgZ,9uthHBq9EeWg_RJGAuFGjw,7,supplement,1,1,Ejemplo char y string,10,f
cRi0g,9uthHBq9EeWg_RJGAuFGjw,8,supplement,0,1,Ejemplo monitor serial,10,f
G7yfF,9uthHBq9EeWg_RJGAuFGjw,6,supplement,1,1,Ejemplo String,10,f
MlagS,9uthHBq9EeWg_RJGAuFGjw,0,lecture,0,1,Microprocesadores y la plataforma Arduino,7,f
gJsno,9uthHBq9EeWg_RJGAuFGjw,5,lecture,3,1,Funciones de interfaz analógica,19,f
03uiE,9uthHBq9EeWg_RJGAuFGjw,6,supplement,0,1,Ejemplo botón,10,f
bD5mc,9uthHBq9EeWg_RJGAuFGjw,3,supplement,2,1,Ejemplo if 2,10,f
Y9qOg,9uthHBq9EeWg_RJGAuFGjw,9,exam,1,1,Lección 2 - Módulo 2,10,f
f15j5,9uthHBq9EeWg_RJGAuFGjw,6,supplement,2,1,Ejemplo while,10,f
4eCf9,9uthHBq9EeWg_RJGAuFGjw,2,lecture,0,1,Primeros pasos: software,8,f
9TPi9,9uthHBq9EeWg_RJGAuFGjw,1,supplement,3,1,Ejemplo funciones,10,f
oSc47,9uthHBq9EeWg_RJGAuFGjw,4,supplement,3,1,Ejemplo ISR,10,f
nNyBP,9uthHBq9EeWg_RJGAuFGjw,5,lecture,2,1,Loops: For y while,14,f
80jk9,9uthHBq9EeWg_RJGAuFGjw,10,exam,0,1,Lección 1 - Módulo 2,10,f
xWfFn,9uthHBq9EeWg_RJGAuFGjw,7,supplement,3,1,Ejemplo ledpot,10,f
VJeve,9uthHBq9EeWg_RJGAuFGjw,0,lecture,3,1,Funciones,12,f
eKmgk,9uthHBq9EeWg_RJGAuFGjw,8,exam,3,1,Lección 4 - Módulo 2,10,f
86CMz,9uthHBq9EeWg_RJGAuFGjw,3,lecture,1,1,Arreglos,11,f
Bc7du,9uthHBq9EeWg_RJGAuFGjw,7,supplement,2,1,Ejemplo for,10,f
eOKcS,9uthHBq9EeWg_RJGAuFGjw,0,lecture,2,1,Variables y lógica booleana,14,f
hnuEo,9uthHBq9EeWg_RJGAuFGjw,2,lecture,3,1,Interrupciones,16,f
L9tEk,9uthHBq9EeWg_RJGAuFGjw,4,lecture,0,1,Primeros pasos: hardware,15,f
fi6Ba,9uthHBq9EeWg_RJGAuFGjw,1,supplement,1,1,Ejemplo recorre tabla,10,f
M1bfC,9uthHBq9EeWg_RJGAuFGjw,3,supplement,0,1,Ejemplo blink,10,f
lNJDU,9uthHBq9EeWg_RJGAuFGjw,7,lecture,0,1,Entradas y salidas,13,f
7f1TC,9uthHBq9EeWg_RJGAuFGjw,2,supplement,2,1,Ejemplo if 1,10,f
VTOmM,9uthHBq9EeWg_RJGAuFGjw,9,supplement,0,1,Ejemplo entradas y salidas digitales,10,f
OE4kr,9uthHBq9EeWg_RJGAuFGjw,4,supplement,1,1,Ejemplo botones arreglo,10,f
LeYXC,9uthHBq9EeWg_RJGAuFGjw,5,supplement,0,1,Ejemplo Blink2,10,f
KQ4Pf,9uthHBq9EeWg_RJGAuFGjw,0,lecture,1,1,Variables,19,f
qAlfS,9uthHBq9EeWg_RJGAuFGjw,2,supplement,1,1,Ejemplo botonesIncDec,10,f
CojjH,9uthHBq9EeWg_RJGAuFGjw,8,lecture,1,1,Operaciones aritméticas y funciones con retorno,9,f
xMo5z,9uthHBq9EeWg_RJGAuFGjw,1,lecture,2,1,"Condiciones: If, else",15,f
6CyaQ,9uthHBq9EeWg_RJGAuFGjw,3,supplement,3,1,Ejemplo interrupciones,16,f
IvIHa,9uthHBq9EeWg_RJGAuFGjw,8,exam,2,1,Lección 3 - Módulo 2,10,f
OaODe,9uthHBq9EeWg_RJGAuFGjw,6,supplement,3,1,Ejemplo potenciómetro,10,f
6hjDz,9uthHBq9EeWg_RJGAuFGjw,1,supplement,0,1,Tarea: software Arduino,10,f
Ic7Vp,9uthHBq9EeWg_RJGAuFGjw,5,lecture,1,1,String,10,f
3lC0X,9uthHBq9EeWg_RJGAuFGjw,4,supplement,2,1,Ejemplo if 3,10,f
3K4pv,9uthHBq9EeWg_RJGAuFGjw,5,exam,0,2,Lección 1 - Módulo 3,8,f
TQLOl,9uthHBq9EeWg_RJGAuFGjw,1,lecture,1,2,Régimen sinusoidal permanente,10,f
IqNZn,9uthHBq9EeWg_RJGAuFGjw,4,exam,3,2,Lección 4 - Módulo 3,10,f
tmThV,9uthHBq9EeWg_RJGAuFGjw,2,lecture,2,2,Amplificadores operacionales,7,f
vh14z,9uthHBq9EeWg_RJGAuFGjw,0,lecture,0,2,"Circuitos, mallas, nodos y tierra",8,f
zU02F,9uthHBq9EeWg_RJGAuFGjw,4,lecture,0,2,Método de nodos,4,f
Yc91t,9uthHBq9EeWg_RJGAuFGjw,3,lecture,3,2,Otros dispositivos,12,f
G8HvT,9uthHBq9EeWg_RJGAuFGjw,3,lecture,2,2,Circuitos básicos con amplificadores operacionales,16,f
TdR8v,9uthHBq9EeWg_RJGAuFGjw,0,lecture,3,2,Diodos y LEDs,12,f
bsxZ8,9uthHBq9EeWg_RJGAuFGjw,2,supplement,0,2,Video Tutorial de LTspice,10,f
uijxF,9uthHBq9EeWg_RJGAuFGjw,1,lecture,2,2,Tipos y usos de amplificadores,6,f
A4JAa,9uthHBq9EeWg_RJGAuFGjw,2,lecture,3,2,Transistores BJT,14,f
jO580,9uthHBq9EeWg_RJGAuFGjw,4,exam,2,2,Lección 3 - Módulo 3,8,f
CtWgt,9uthHBq9EeWg_RJGAuFGjw,1,lecture,0,2,Leyes circuitales,23,f
YYLGv,9uthHBq9EeWg_RJGAuFGjw,0,lecture,1,2,Capacitancia e inductancia,14,f
5BP8j,9uthHBq9EeWg_RJGAuFGjw,2,lecture,1,2,Respuesta transiente,14,f
VR52R,9uthHBq9EeWg_RJGAuFGjw,1,lecture,3,2,Transistores MOS,10,f
H8Liu,9uthHBq9EeWg_RJGAuFGjw,4,exam,1,2,Lección 2 - Módulo 3,6,f
M1SSE,9uthHBq9EeWg_RJGAuFGjw,3,lecture,0,2,Método de mallas,6,f
56uJ1,9uthHBq9EeWg_RJGAuFGjw,3,lecture,1,2,Filtros,9,f
R3VBP,9uthHBq9EeWg_RJGAuFGjw,0,lecture,2,2,Fuentes dependientes,10,f
OWaJc,9uthHBq9EeWg_RJGAuFGjw,3,supplement,0,3,Ejemplo sensor de distancia + buzzer,10,f
VJhJU,9uthHBq9EeWg_RJGAuFGjw,0,lecture,0,3,Sensores,11,f
PpArB,9uthHBq9EeWg_RJGAuFGjw,0,lecture,1,3,Estándares de comunicación,8,f
7af8w,9uthHBq9EeWg_RJGAuFGjw,5,supplement,0,3,Ejemplo parlante,10,f
z4c8f,9uthHBq9EeWg_RJGAuFGjw,1,supplement,0,3,Ejemplo sensor distancia,10,f
JyYXV,9uthHBq9EeWg_RJGAuFGjw,2,supplement,1,3,Ejemplo bluetooth,10,f
R8tV6,9uthHBq9EeWg_RJGAuFGjw,3,exam,1,3,Lección 2 - Módulo 4,6,f
nTmGk,9uthHBq9EeWg_RJGAuFGjw,2,lecture,0,3,Actuadores,12,f
cbayI,9uthHBq9EeWg_RJGAuFGjw,4,exam,3,3,Lección 4 - Módulo 4,6,f
TLxKB,9uthHBq9EeWg_RJGAuFGjw,4,lecture,2,3,Modificación de servo,11,f
EtQzA,9uthHBq9EeWg_RJGAuFGjw,6,supplement,0,3,Ejemplo micrófono,10,f
6AJoc,9uthHBq9EeWg_RJGAuFGjw,2,lecture,3,3,Prototipo mecánico,6,f
sra8K,9uthHBq9EeWg_RJGAuFGjw,0,lecture,3,3,Diseño top-down,6,f
z8UzR,9uthHBq9EeWg_RJGAuFGjw,3,supplement,3,3,Código robot Travis,10,f
QkSeB,9uthHBq9EeWg_RJGAuFGjw,1,lecture,3,3,Prototipo electrónico,13,f
UkgS4,9uthHBq9EeWg_RJGAuFGjw,2,lecture,2,3,Servo,11,f
b0QjM,9uthHBq9EeWg_RJGAuFGjw,7,exam,0,3,Lección 1 - Módulo 4,10,f
ufvxY,9uthHBq9EeWg_RJGAuFGjw,0,lecture,2,3,Motor DC,12,f
5BnI7,9uthHBq9EeWg_RJGAuFGjw,1,supplement,2,3,Ejemplo motor DC,10,f
lcijR,9uthHBq9EeWg_RJGAuFGjw,1,lecture,1,3,Ejemplo: Comunicación bluetooth,19,f
0zWGS,9uthHBq9EeWg_RJGAuFGjw,4,lecture,0,3,Acondicionamiento y potencia,13,f
cfn2q,9uthHBq9EeWg_RJGAuFGjw,5,exam,2,3,Lección 3 - Módulo 4,6,f
Dd0Pj,9uthHBq9EeWg_RJGAuFGjw,3,supplement,2,3,Ejemplo servo,10,f
e2vrMyj0Eea7jBLLHPwd0w,9uthHBq9EeWg_RJGAuFGjw,0,discussions,0,2,Week 3,0,f
e1rUMij0Eea7jBLLHPwd0w,9uthHBq9EeWg_RJGAuFGjw,0,discussions,0,0,Week 1,0,f
e0UpUSj0Eea7jBLLHPwd0w,9uthHBq9EeWg_RJGAuFGjw,0,discussions,0,0,General Discussion,0,f
e2Tl_Cj0Eea8jw6UvTi2Tw,9uthHBq9EeWg_RJGAuFGjw,0,discussions,0,1,Week 2,0,f
e3QoPSj0Eea8jw6UvTi2Tw,9uthHBq9EeWg_RJGAuFGjw,0,discussions,0,3,Week 4,0,f
e1BzSSj0EeaZ8Apto8QB_w,9uthHBq9EeWg_RJGAuFGjw,0,discussions,0,1,Meet and Greet,0,f
ez38uCj0EeaZ8Apto8QB_w,9uthHBq9EeWg_RJGAuFGjw,0,discussions,0,0,All Course Discussions,0,f